Data Replication
…
## The following objects are masked from 'package:stats':
## 
##     filter, lag

## The following objects are masked from 'package:base':
## 
##     intersect, setdiff, setequal, union

library(tidyr)

byPop <- group_by(d, Population)#just wanted to get comfy with the data
byPop

## # A tibble: 348 x 12
## # Groups:   Population [24]
##    Population Site  Institution      Individual.ID inlet.ML inlet.AP midplane.ML
##    <chr>      <chr> <chr>            <chr>            <dbl>    <dbl>       <dbl>
##  1 Ainu       ""    Kyoto Universit~ 626               12.4     11.3         9.8
##  2 Ainu       ""    Kyoto Universit~ 630               14.3     11.1        11.5
##  3 Ainu       ""    Kyoto Universit~ 658               12.1     10           9.4
##  4 Ainu       ""    Tokyo Universit~ 1335              11.9      8.4         8.9
##  5 Ainu       ""    Tokyo Universit~ 1346              12.1     11.5        10.1
##  6 Ainu       ""    Tokyo Universit~ 1349              13.1     11.8        10.2
##  7 Ainu       ""    Tokyo Universit~ 1354              13.6     11.4        10.3
##  8 Ainu       ""    Tokyo Universit~ 1364              13       11.2         9.8
##  9 Ainu       ""    Tokyo Universit~ 1432              12.2      9.8        10.3
## 10 Ainu       ""    Tokyo Universit~ 1437              13.1      9.6        10  
## # ... with 338 more rows, and 5 more variables: midplane.AP <dbl>,
## #   outlet.ML <dbl>, outlet.AP <dbl>, Region <chr>, Body.mass <dbl>
…
Americas <- d[grep("Americas", d$Region), ]
Sub_saharan_Africa <- d[grep("Subsaharan Africa", d$Region), ]
Europe_and_North_Africa <- d[grep("Europe and North Africa", d$Region), ]

#in looking for subsetting help i rediscovered this dplyr trick!
byRegion <- group_by(d, Region)
byRegion

## # A tibble: 348 x 16
## # Groups:   Region [4]
##    Population Site  Institution      Individual.ID inlet.ML inlet.AP midplane.ML
##    <chr>      <chr> <chr>            <chr>            <dbl>    <dbl>       <dbl>
##  1 Ainu       ""    Kyoto Universit~ 626               12.4     11.3         9.8
##  2 Ainu       ""    Kyoto Universit~ 630               14.3     11.1        11.5
##  3 Ainu       ""    Kyoto Universit~ 658               12.1     10           9.4
##  4 Ainu       ""    Tokyo Universit~ 1335              11.9      8.4         8.9
##  5 Ainu       ""    Tokyo Universit~ 1346              12.1     11.5        10.1
##  6 Ainu       ""    Tokyo Universit~ 1349              13.1     11.8        10.2
##  7 Ainu       ""    Tokyo Universit~ 1354              13.6     11.4        10.3
##  8 Ainu       ""    Tokyo Universit~ 1364              13       11.2         9.8
##  9 Ainu       ""    Tokyo Universit~ 1432              12.2      9.8        10.3
## 10 Ainu       ""    Tokyo Universit~ 1437              13.1      9.6        10  
## # ... with 338 more rows, and 9 more variables: midplane.AP <dbl>,
## #   outlet.ML <dbl>, outlet.AP <dbl>, Region <chr>, Body.mass <dbl>,
## #   inlet.index <dbl>, midplane.index <dbl>, outlet.index <dbl>,
## #   canal.size <dbl>

Subsetting proved more difficult without manual lists.

Thailand <- d[grep("Thailand", d$Population), ] #I can do each indiv. population but I can't subset them as part of the "Asia" dataframe
Ainu <- d[grep("Ainu", d$Population), ]
India <- d[grep("India", d$Population), ]
Iran <- d[grep("Iran", d$Population), ]
Japan <- d[grep("Japan", d$Population), ]
Philippines_negritos <- d[grep("Philippines negritos", d$Population), ]

byPop <- group_by(d, Population)
byPop

## # A tibble: 348 x 16
## # Groups:   Population [24]
##    Population Site  Institution      Individual.ID inlet.ML inlet.AP midplane.ML
##    <chr>      <chr> <chr>            <chr>            <dbl>    <dbl>       <dbl>
##  1 Ainu       ""    Kyoto Universit~ 626               12.4     11.3         9.8
##  2 Ainu       ""    Kyoto Universit~ 630               14.3     11.1        11.5
##  3 Ainu       ""    Kyoto Universit~ 658               12.1     10           9.4
##  4 Ainu       ""    Tokyo Universit~ 1335              11.9      8.4         8.9
##  5 Ainu       ""    Tokyo Universit~ 1346              12.1     11.5        10.1
##  6 Ainu       ""    Tokyo Universit~ 1349              13.1     11.8        10.2
##  7 Ainu       ""    Tokyo Universit~ 1354              13.6     11.4        10.3
##  8 Ainu       ""    Tokyo Universit~ 1364              13       11.2         9.8
##  9 Ainu       ""    Tokyo Universit~ 1432              12.2      9.8        10.3
## 10 Ainu       ""    Tokyo Universit~ 1437              13.1      9.6        10  
## # ... with 338 more rows, and 9 more variables: midplane.AP <dbl>,
## #   outlet.ML <dbl>, outlet.AP <dbl>, Region <chr>, Body.mass <dbl>,
## #   inlet.index <dbl>, midplane.index <dbl>, outlet.index <dbl>,
## #   canal.size <dbl>

#this seems to be the best way to group things, unfortunately I can't figure out how to nest the byPop in byRegion since the rows can't have duplicate names

byRegion$Population<- as.factor(byRegion$Population)
#by I can create a factor vector within byRegion- it just doesn't nest the tree

After individually grouping things I wanted to go ahead and make a data frame with just the info I would be using to graph.

spop <- summarise(byPop,  inlet.index = mean(inlet.index, na.rm = TRUE), midplane.index = mean(midplane.index, na.rm = TRUE), outlet.index = mean(outlet.index, na.rm = TRUE), canal.size = mean(canal.size, na.rm = TRUE))
spop #this creates a workable tibble based on byPop

## # A tibble: 24 x 5
##    Population inlet.index midplane.index outlet.index canal.size
##    <chr>            <dbl>          <dbl>        <dbl>      <dbl>
##  1 Ainu             0.848           1.26        1.05       1.04 
##  2 Alaska           0.796           1.15        0.915      0.941
##  3 Arikara          0.807           1.19        0.938      0.965
##  4 Austria          0.817           1.20        0.921      0.964
##  5 Botswana         0.918           1.27        1.04       1.06 
##  6 California       0.801           1.20        0.938      0.964
##  7 Egypt            0.865           1.15        0.941      0.978
##  8 France           0.839           1.24        0.973      1.00 
##  9 Fuegian          0.826           1.26        1.05       1.03 
## 10 India            0.903           1.32        1.00       1.06 
## # ... with 14 more rows
…
